﻿<?xml version="1.0" encoding="utf-8"?>
<svg version="1.1" xmlns:xlink="http://www.w3.org/1999/xlink" width="775px" height="393px" xmlns="http://www.w3.org/2000/svg">
  <defs>
    <linearGradient gradientUnits="userSpaceOnUse" x1="387.5" y1="33.2777777777791" x2="387.5" y2="393" id="LinearGradient7">
      <stop id="Stop8" stop-color="#81d3f8" stop-opacity="0.988235294117647" offset="0" />
      <stop id="Stop9" stop-color="#ffffff" stop-opacity="0" offset="1" />
    </linearGradient>
  </defs>
  <g transform="matrix(1 0 0 1 -249 -407 )">
    <path d="M 775 393  L 775 142.363161741673  C 775 142.363161741673  732.947169570279 9.19209216526195  671.833333333335 3  C 610.719497096391 -3.19209216526195  632.298768900647 -0.273119626887819  561.833333333335 29.6666666666651  C 516.492101782751 48.9315271189109  497.360902528363 148.56772353839  471.833333333335 159.666666666665  C 433.5 176.333333333335  373.5 129.666666666665  306.833333333335 159.666666666665  C 250.827875859998 184.869122529668  203.553794605699 305.491569169125  156.833333333335 326.333333333335  C 72.7098412883574 363.860402504381  0.0765565155893455 392.768647105916  0.0765565155893455 392.768647105916  L 775 393  Z " fill-rule="nonzero" fill="url(#LinearGradient7)" stroke="none" transform="matrix(1 0 0 1 249 407 )" />
  </g>
</svg>